<svg width="58" height="18" viewBox="0 0 58 18" version="1.1" xmlns="http://www.w3.org/2000/svg" xmlns:xlink="http://www.w3.org/1999/xlink">
<title>Innlab</title>
<desc>Created using Figma</desc>
<g id="Canvas" transform="translate(666 464)">
<g id="Innlab">
<use xlink:href="#path0_fill" transform="translate(-665.866 -463.192)"/>
<use xlink:href="#path1_fill" transform="translate(-665.866 -463.192)"/>
<use xlink:href="#path2_fill" transform="translate(-665.866 -463.192)"/>
<use xlink:href="#path3_fill" transform="translate(-665.866 -463.192)"/>
<use xlink:href="#path4_fill" transform="translate(-665.866 -463.192)"/>
<use xlink:href="#path5_fill" transform="translate(-665.866 -463.192)"/>
</g>
</g>
<defs>
<path id="path0_fill" d="M 0 0.528L 0.902 0.528L 0.902 16.192L 0 16.192L 0 0.528Z"/>
<path id="path1_fill" d="M 9.70973 4.928C 12.3791 4.928 13.7137 6.32133 13.7137 9.108L 13.7137 16.192L 12.7897 16.192L 12.7897 9.196C 12.7897 8.02267 12.5477 7.16467 12.0637 6.622C 11.5944 6.07933 10.8391 5.808 9.79773 5.808C 8.60973 5.808 7.6564 6.16733 6.93773 6.886C 6.23373 7.60467 5.88173 8.57267 5.88173 9.79L 5.88173 16.192L 4.97973 16.192L 4.97973 8.228C 4.97973 7.084 4.92107 6.072 4.80373 5.192L 5.68373 5.192L 5.83773 7.282C 6.14573 6.51933 6.6444 5.94 7.33373 5.544C 8.02307 5.13333 8.81507 4.928 9.70973 4.928Z"/>
<path id="path2_fill" d="M 22.2566 4.928C 24.9259 4.928 26.2606 6.32133 26.2606 9.108L 26.2606 16.192L 25.3366 16.192L 25.3366 9.196C 25.3366 8.02267 25.0946 7.16467 24.6106 6.622C 24.1413 6.07933 23.3859 5.808 22.3446 5.808C 21.1566 5.808 20.2033 6.16733 19.4846 6.886C 18.7806 7.60467 18.4286 8.57267 18.4286 9.79L 18.4286 16.192L 17.5266 16.192L 17.5266 8.228C 17.5266 7.084 17.4679 6.072 17.3506 5.192L 18.2306 5.192L 18.3846 7.282C 18.6926 6.51933 19.1913 5.94 19.8806 5.544C 20.5699 5.13333 21.3619 4.928 22.2566 4.928Z"/>
<path id="path3_fill" d="M 30.0735 0L 30.9755 0L 30.9755 16.192L 30.0735 16.192L 30.0735 0Z"/>
<path id="path4_fill" d="M 43.8185 5.192L 43.8185 16.192L 42.8945 16.192L 42.8945 13.992C 42.5718 14.7547 42.0732 15.3413 41.3985 15.752C 40.7385 16.148 39.9465 16.346 39.0225 16.346C 38.0398 16.346 37.1745 16.1187 36.4265 15.664C 35.6932 15.1947 35.1212 14.5347 34.7105 13.684C 34.3145 12.8187 34.1165 11.814 34.1165 10.67C 34.1165 9.526 34.3218 8.52133 34.7325 7.656C 35.1432 6.79067 35.7152 6.12333 36.4485 5.654C 37.1965 5.17 38.0545 4.928 39.0225 4.928C 39.9465 4.928 40.7385 5.126 41.3985 5.522C 42.0732 5.918 42.5718 6.49733 42.8945 7.26L 42.8945 5.192L 43.8185 5.192ZM 39.0445 15.444C 40.2618 15.444 41.2078 15.026 41.8825 14.19C 42.5572 13.3393 42.8945 12.1513 42.8945 10.626C 42.8945 9.086 42.5572 7.90533 41.8825 7.084C 41.2078 6.248 40.2545 5.83 39.0225 5.83C 37.7905 5.83 36.8298 6.25533 36.1405 7.106C 35.4512 7.95667 35.1065 9.14467 35.1065 10.67C 35.1065 12.1807 35.4512 13.354 36.1405 14.19C 36.8445 15.026 37.8125 15.444 39.0445 15.444Z"/>
<path id="path5_fill" d="M 52.4867 4.928C 53.4547 4.928 54.3127 5.16267 55.0607 5.632C 55.8087 6.08667 56.3807 6.74667 56.7767 7.612C 57.1873 8.46267 57.3927 9.45267 57.3927 10.582C 57.3927 11.726 57.1873 12.738 56.7767 13.618C 56.366 14.4833 55.7867 15.158 55.0387 15.642C 54.3053 16.1113 53.4547 16.346 52.4867 16.346C 51.548 16.346 50.7487 16.1407 50.0887 15.73C 49.4433 15.3193 48.952 14.7253 48.6147 13.948L 48.6147 16.192L 47.6907 16.192L 47.6907 0L 48.5927 0L 48.5927 7.37C 48.9153 6.578 49.4067 5.97667 50.0667 5.566C 50.7413 5.14067 51.548 4.928 52.4867 4.928ZM 52.5087 15.444C 53.726 15.444 54.672 15.0187 55.3467 14.168C 56.036 13.3027 56.3807 12.1073 56.3807 10.582C 56.3807 9.07133 56.036 7.90533 55.3467 7.084C 54.672 6.248 53.7187 5.83 52.4867 5.83C 51.24 5.83 50.2793 6.248 49.6047 7.084C 48.9447 7.90533 48.6147 9.086 48.6147 10.626C 48.6147 12.166 48.9447 13.354 49.6047 14.19C 50.2793 15.026 51.2473 15.444 52.5087 15.444Z"/>
</defs>
</svg>
